<svg xmlns="http://www.w3.org/2000/svg" width="24" height="24" viewBox="0 0 24 24">
  <path fill="#2E2E33" d="M6,9 L6,6.00166547 C6,4.34389141 7.3486445,3 9.00032973,3 L14.9996703,3 C16.6567066,3 18,4.33902013 18,6.00166547 L18,9 L21,9 L21,12.236068 L19.9435188,14.3490303 L18.7807764,20 L5.21922359,20 L4.05648118,14.3490303 L3,12.236068 L3,9 L6,9 Z M17.2192236,18 L18.0298575,13.7574644 L18.1055728,13.5527864 L19,11.763932 L19,11 L5,11 L5,11.763932 L5.89442719,13.5527864 L5.9701425,13.7574644 L6.78077641,18 L17.2192236,18 Z M16,9 L16,6.00166547 C16,5.44557503 15.5541234,5 14.9996703,5 L9.00032973,5 C8.45101408,5 8,5.45065968 8,6.00166547 L8,9 L16,9 Z"/>
</svg>
