<svg xmlns="http://www.w3.org/2000/svg" width="24" height="24" viewBox="0 0 24 24">
  <path fill="#2E2E33" d="M4,15 L6,15 L6,18 L18,18 L18,6 L6,6 L6,9 L4,9 L4,4 L20,4 L20,20 L4,20 L4,15 Z M12,13 L4,13 L4,11 L12,11 L10.5,9.5 L12,8 L16,12 L12,16 L10.5,14.5 L12,13 Z"/>
</svg>
