<svg xmlns="http://www.w3.org/2000/svg" width="24" height="24" viewBox="0 0 24 24">
  <path fill="#2E2E33" d="M12.4160437,5 C12.1484475,5.61246235 12,6.28889529 12,7 L8,7 C7.44771525,7 7,7.44771525 7,8 L7,16 C7,16.5522847 7.44771525,17 8,17 L16,17 C16.5522847,17 17,16.5522847 17,16 L17,12 C17.7111047,12 18.3875377,11.8515525 19,11.5839563 L19,16 C19,17.6568542 17.6568542,19 16,19 L8,19 C6.34314575,19 5,17.6568542 5,16 L5,8 C5,6.34314575 6.34314575,5 8,5 L12.4160437,5 Z M17,10 C18.6568542,10 20,8.65685425 20,7 C20,5.34314575 18.6568542,4 17,4 C15.3431458,4 14,5.34314575 14,7 C14,8.65685425 15.3431458,10 17,10 Z"/>
</svg>
