<svg xmlns="http://www.w3.org/2000/svg" width="24" height="24" viewBox="0 0 24 24">
  <path fill="#2E2E33" d="M2.14479109,14.6567283 C3.09919349,14.1546299 3.75,13.153317 3.75,12 C3.75,10.846683 3.09919349,9.84537008 2.14479109,9.34327175 L4.74121215,4.77407018 C5.65702555,5.36750758 6.86506632,5.4383759 7.875,4.85529042 C8.91604906,4.25424047 9.4605739,3.12345509 9.36466819,2 L14.6353318,2 C14.5394261,3.12345509 15.0839509,4.25424047 16.125,4.85529042 C17.1349337,5.4383759 18.3429744,5.36750758 19.2587878,4.77407018 L21.8552089,9.34327175 C20.9008065,9.84537008 20.25,10.846683 20.25,12 C20.25,13.153317 20.9008065,14.1546299 21.8552089,14.6567283 L19.2587878,19.2259298 C18.3429744,18.6324924 17.1349337,18.5616241 16.125,19.1447096 C15.0839509,19.7457595 14.5394261,20.8765449 14.6353318,22 L9.36466819,22 C9.4605739,20.8765449 8.91604906,19.7457595 7.875,19.1447096 C6.86506632,18.5616241 5.65702555,18.6324924 4.74121215,19.2259298 L2.14479109,14.6567283 Z M5.65953372,16.7938277 C6.7455535,16.6366808 7.87836352,16.8372504 8.875,17.4126588 C9.90900734,18.0096432 10.6657178,18.9345668 11.0618473,20 L12.9381527,20 C13.3342822,18.9345668 14.0909927,18.0096432 15.125,17.4126588 C16.1216365,16.8372504 17.2544465,16.6366808 18.3404663,16.7938277 L19.3128263,15.0826612 C18.6389988,14.2223164 18.25,13.1453506 18.25,12 C18.25,10.8546494 18.6389988,9.77768357 19.3128263,8.91733882 L18.3404663,7.20617225 C17.2544465,7.36331922 16.1216365,7.16274957 15.125,6.58734123 C14.0909927,5.99035681 13.3342822,5.06543325 12.9381527,4 L11.0618473,4 C10.6657178,5.06543325 9.90900734,5.99035681 8.875,6.58734123 C7.87836352,7.16274957 6.7455535,7.36331922 5.65953372,7.20617225 L4.6871737,8.91733882 C5.36100115,9.77768357 5.75,10.8546494 5.75,12 C5.75,13.1453506 5.36100115,14.2223164 4.6871737,15.0826612 L5.65953372,16.7938277 Z M12,16 C9.790861,16 8,14.209139 8,12 C8,9.790861 9.790861,8 12,8 C14.209139,8 16,9.790861 16,12 C16,14.209139 14.209139,16 12,16 Z M12,14 C13.1045695,14 14,13.1045695 14,12 C14,10.8954305 13.1045695,10 12,10 C10.8954305,10 10,10.8954305 10,12 C10,13.1045695 10.8954305,14 12,14 Z"/>
</svg>
