<svg xmlns="http://www.w3.org/2000/svg" width="24" height="24" viewBox="0 0 24 24">
  <path fill="#2E2E33" d="M18,6 L6,6 L6,15 L14.6055513,15 L18,17.2629658 L18,6 Z M4,17 L4,4 L20,4 L20,21 L14,17 L4,17 Z"/>
</svg>
